End To End Data Science With R - 22 Basics of NLP
…
#let's create a simple text data example with some common stop words:
text <- "The quick brown fox jumps over the lazy dog."

#Now, we will tokenize the text into words using the unnest_tokens() function from the tidytext package:
text_df <- tibble(line = 1, text = text) %>%
  unnest_tokens(word, text)
print(text_df)
#> # A tibble: 9 × 2
#>    line word 
#>   <dbl> <chr>
#> 1     1 the  
#> 2     1 quick
#> 3     1 brown
#> 4     1 fox  
#> 5     1 jumps
#> 6     1 over 
#> # ℹ 3 more rows
…
22.5 Words frequencies

A fundamental step in text analysis is determining the frequency of words within a given text. Analysing word frequencies can reveal patterns and trends that provide valuable insights into the content and its underlying themes. In this section, we will demonstrate how to calculate word frequencies using R.

Continue with the same example sentence, we first tokenize the text into words using the unnest_tokens() function from the tidytext package:

text_df <- tibble(line = 1, text = text) %>%
  unnest_tokens(word, text)

Then, we calculate the word frequencies using the count() function from the dplyr package:

word_frequencies <- text_df %>%
  count(word, sort = TRUE)
print(word_frequencies)
#> # A tibble: 8 × 2
#>   word      n
#>   <chr> <int>
#> 1 the       2
#> 2 brown     1
#> 3 dog       1
#> 4 fox       1
#> 5 jumps     1
#> 6 lazy      1
#> # ℹ 2 more rows
…
